%YAML 1.1
%TAG !u! tag:unity3d.com,2011:
--- !u!114 &11400000
MonoBehaviour:
  m_ObjectHideFlags: 0
  m_CorrespondingSourceObject: {fileID: 0}
  m_PrefabInstance: {fileID: 0}
  m_PrefabAsset: {fileID: 0}
  m_GameObject: {fileID: 0}
  m_Enabled: 1
  m_EditorHideFlags: 0
  m_Script: {fileID: 11500000, guid: f1699d20be42d864fb890244440f39dd, type: 3}
  m_Name: 4
  m_EditorClassIdentifier: 
  areaPrefabs:
  - {fileID: 8210488581376417112, guid: 6aebca50600518a4a9f4cdeec5c19d20, type: 3}
  - {fileID: 4697667064448445321, guid: ebf0ff482e7540d4db8ed6c5f3992993, type: 3}
  - {fileID: 8596433447645616656, guid: 5d1a717dc96c4294b8fd72464cf59049, type: 3}
  - {fileID: 4697667064448445321, guid: 16c5468b197ae3d4280430302efe27f2, type: 3}
  - {fileID: 8596433447645616656, guid: a232ea74f26e95b47888ea9132ef232b, type: 3}
  - {fileID: 2659284189796623783, guid: 2e2545c178f18ef459d92439fa43b4f4, type: 3}
  - {fileID: 1566502209251994032, guid: 8e9584221098f4b47aaacd4e2d39b752, type: 3}
  - {fileID: 4697667064448445321, guid: 54171223548b45a4ba4877fd3b11d4a2, type: 3}
  - {fileID: 8596433447645616656, guid: 3497874720a649e48b3504a8847bdcec, type: 3}
  groundColor: {r: 0, g: 0, b: 0, a: 0}
